Starting Logger...
********************BB Routing Tour*************
18.618364635652	73.761006945759
18.5907219563165	73.7274483920654
18.6022347527467	73.7209690672119
18.6022754260155	73.7209797960479
18.6022754260155	73.7209797960479
18.6022754260155	73.7209797960479
18.5809007617244	73.6841067248536
18.5770459654419	73.6850918394287
18.5764764544566	73.6845768552978
18.5764764544566	73.6845768552978
********************BB Routing Tour*************
18.573781898639	73.680770056839
18.578466	73.681877
18.6092129357957	73.7180412532116
18.609312	73.717872
18.6094947772544	73.7195743185241
18.5998175354708	73.73468167794
18.603579825774	73.744418096634
18.618364635652	73.761006945759
***********BBDistance Slot1*********
Slot 1: Total Drops: 9 BBDistance (Kms) 19.768000000000004 Time (mins)149.304
***********BB Jump Distance*********
Jumpover Distance (Kms) 	0.9
***********BBDistance Slot2*********
Slot 2: Total Drops: 7 BBDistance (Kms) 18.923000000000002 Time (mins)126.769

***********BBDistance Total*********
Both Slots: Total Drops: 16 BBDistance (Kms) 39.591 Time (mins)276.073

*****************Objective function and Variable Values***************
# Objective value = 39.291
Tour_A_Reduction 2.9984695282259111e-15
Tour_B_Reduction 4.7000000000000011e+00
*******************New Tour*********************
18.618364635652	73.761006945759
18.6022347527467	73.7209690672119
18.6022754260155	73.7209797960479
18.6022754260155	73.7209797960479
18.6022754260155	73.7209797960479
18.5907219563165	73.7274483920654
18.5809007617244	73.6841067248536
18.5770459654419	73.6850918394287
18.5764764544566	73.6845768552978
18.5764764544566	73.6845768552978
18.578466	73.681877
18.573781898639	73.680770056839
18.6094947772544	73.7195743185241
18.6092129357957	73.7180412532116
18.609312	73.717872
18.5998175354708	73.73468167794
18.603579825774	73.744418096634
18.618364635652	73.761006945759
*******************New Tour Ends*********************
Percentage Distance Reduction: 0
