Starting Logger...
********************BB Routing Tour*************
18.618364635652	73.761006945759
18.5775341162007	73.6865509611328
18.5775341162007	73.6865509611328
18.5775589535324	73.6824743923127
18.5775341162007	73.6824310880859
18.5775341162027	73.6825866561901
18.578001926033	73.6825705629547
18.5783786842356	73.682390111084
18.5788358447237	73.6843193632324
********************BB Routing Tour*************
18.579323990357	73.6848343473632
18.5755408251364	73.7106371980865
18.618364635652	73.761006945759
***********BBDistance Slot1*********
Slot 1: Total Drops: 8 BBDistance (Kms) 13.898999999999997 Time (mins)121.69699999999999
***********BB Jump Distance*********
Jumpover Distance (Kms) 	60.0
***********BBDistance Slot2*********
Slot 2: Total Drops: 2 BBDistance (Kms) 11.9 Time (mins)55.699999999999996

***********BBDistance Total*********
Both Slots: Total Drops: 10 BBDistance (Kms) 85.799 Time (mins)177.397

*****************Objective function and Variable Values***************
# Objective value = 25.749
Tour_A_Reduction 1.0999999999999488e-01
Tour_B_Reduction 68.4
*******************New Tour*********************
18.618364635652	73.761006945759
18.5775341162007	73.6865509611328
18.5775341162007	73.6865509611328
18.5775341162007	73.6824310880859
18.5775341162027	73.6825866561901
18.578001926033	73.6825705629547
18.5783786842356	73.682390111084
18.5775589535324	73.6824743923127
18.5788358447237	73.6843193632324
18.579323990357	73.6848343473632
18.5755408251364	73.7106371980865
18.618364635652	73.761006945759
*******************New Tour Ends*********************
Percentage Distance Reduction: 69
