Starting Logger...
********************BB Routing Tour*************
18.618364635652	73.761006945759
12.9710538884674	77.5710192194046
12.9687642165827	77.5782289972366
12.9692346988271	77.5783362855972
12.9683485686771	77.5822973198517
12.9686315918952	77.5810971703613
12.9672636418086	77.5799809407226
12.966770931104	77.5873242629988
12.9728453598894	77.5821958793624
********************BB Routing Tour*************
12.972376451894	77.5723335018219
12.9865946767922	77.5774420859558
12.9909616709461	77.5771093169189
12.9925843482386	77.5698740121642
12.999140861479	77.5661622155526
13.0146161134203	77.5600012655761
12.9925234590877	77.5711806286194
18.618364635652	73.761006945759
***********BBDistance Slot1*********
Slot 1: Total Drops: 8 BBDistance (Kms) 15.271999999999998 Time (mins)125.816
***********BB Jump Distance*********
Jumpover Distance (Kms) 	1.3
***********BBDistance Slot2*********
Slot 2: Total Drops: 7 BBDistance (Kms) 19.1 Time (mins)127.30000000000001

***********BBDistance Total*********
Both Slots: Total Drops: 15 BBDistance (Kms) 35.672 Time (mins)253.116

*****************Objective function and Variable Values***************
# Objective value = 27.372
Tour_A_Reduction 4.9999999999999789e-01
Tour_B_Reduction 9.1000000000000050e+00
*******************New Tour*********************
18.618364635652	73.761006945759
12.9710538884674	77.5710192194046
12.9687642165827	77.5782289972366
12.9692346988271	77.5783362855972
12.9686315918952	77.5810971703613
12.9672636418086	77.5799809407226
12.9683485686771	77.5822973198517
12.966770931104	77.5873242629988
12.9728453598894	77.5821958793624
12.972376451894	77.5723335018219
12.9865946767922	77.5774420859558
12.9909616709461	77.5771093169189
12.9925234590877	77.5711806286194
12.9925843482386	77.5698740121642
12.999140861479	77.5661622155526
13.0146161134203	77.5600012655761
18.618364635652	73.761006945759
*******************New Tour Ends*********************
Percentage Distance Reduction: 23
